Determining if the pthread_create exist failed with the following output:
Change Dir: /home/david/temp/eindwerk-joren/lib/gtest-1.7.0/CMakeFiles/CMakeTmp

Run Build Command:/usr/bin/make "cmTryCompileExec3624266892/fast"
/usr/bin/make -f CMakeFiles/cmTryCompileExec3624266892.dir/build.make CMakeFiles/cmTryCompileExec3624266892.dir/build
make[1]: Map '/home/david/temp/eindwerk-joren/lib/gtest-1.7.0/CMakeFiles/CMakeTmp' wordt binnengegaan
/usr/bin/cmake -E cmake_progress_report /home/david/temp/eindwerk-joren/lib/gtest-1.7.0/CMakeFiles/CMakeTmp/CMakeFiles 1
Building C object CMakeFiles/cmTryCompileExec3624266892.dir/CheckSymbolExists.c.o
/usr/bin/cc    -o CMakeFiles/cmTryCompileExec3624266892.dir/CheckSymbolExists.c.o   -c /home/david/temp/eindwerk-joren/lib/gtest-1.7.0/CMakeFiles/CMakeTmp/CheckSymbolExists.c
Linking C executable cmTryCompileExec3624266892
/usr/bin/cmake -E cmake_link_script CMakeFiles/cmTryCompileExec3624266892.dir/link.txt --verbose=1
/usr/bin/cc       CMakeFiles/cmTryCompileExec3624266892.dir/CheckSymbolExists.c.o  -o cmTryCompileExec3624266892 -rdynamic 
CMakeFiles/cmTryCompileExec3624266892.dir/CheckSymbolExists.c.o: In function `main':
CheckSymbolExists.c:(.text+0x16): undefined reference to `pthread_create'
collect2: error: ld returned 1 exit status
make[1]: *** [cmTryCompileExec3624266892] Fout 1
make[1]: Map '/home/david/temp/eindwerk-joren/lib/gtest-1.7.0/CMakeFiles/CMakeTmp' wordt verlaten
make: *** [cmTryCompileExec3624266892/fast] Fout 2

File /home/david/temp/eindwerk-joren/lib/gtest-1.7.0/CMakeFiles/CMakeTmp/CheckSymbolExists.c:
/* */
#include <pthread.h>

int main(int argc, char** argv)
{
  (void)argv;
#ifndef pthread_create
  return ((int*)(&pthread_create))[argc];
#else
  (void)argc;
  return 0;
#endif
}

Determining if the function pthread_create exists in the pthreads failed with the following output:
Change Dir: /home/david/temp/eindwerk-joren/lib/gtest-1.7.0/CMakeFiles/CMakeTmp

Run Build Command:/usr/bin/make "cmTryCompileExec1738158023/fast"
/usr/bin/make -f CMakeFiles/cmTryCompileExec1738158023.dir/build.make CMakeFiles/cmTryCompileExec1738158023.dir/build
make[1]: Map '/home/david/temp/eindwerk-joren/lib/gtest-1.7.0/CMakeFiles/CMakeTmp' wordt binnengegaan
/usr/bin/cmake -E cmake_progress_report /home/david/temp/eindwerk-joren/lib/gtest-1.7.0/CMakeFiles/CMakeTmp/CMakeFiles 1
Building C object CMakeFiles/cmTryCompileExec1738158023.dir/CheckFunctionExists.c.o
/usr/bin/cc   -DCHECK_FUNCTION_EXISTS=pthread_create   -o CMakeFiles/cmTryCompileExec1738158023.dir/CheckFunctionExists.c.o   -c /usr/share/cmake-2.8/Modules/CheckFunctionExists.c
Linking C executable cmTryCompileExec1738158023
/usr/bin/cmake -E cmake_link_script CMakeFiles/cmTryCompileExec1738158023.dir/link.txt --verbose=1
/usr/bin/cc   -DCHECK_FUNCTION_EXISTS=pthread_create    CMakeFiles/cmTryCompileExec1738158023.dir/CheckFunctionExists.c.o  -o cmTryCompileExec1738158023 -rdynamic -lpthreads 
/usr/bin/ld: cannot find -lpthreads
collect2: error: ld returned 1 exit status
make[1]: *** [cmTryCompileExec1738158023] Fout 1
make[1]: Map '/home/david/temp/eindwerk-joren/lib/gtest-1.7.0/CMakeFiles/CMakeTmp' wordt verlaten
make: *** [cmTryCompileExec1738158023/fast] Fout 2


